$modelname "sb8/props_doors/door_double.mdl"

$scale  40.0
$origin 1 1 46
$model  "door" "door_double.dmx"

$cdmaterials "models/sb8/props_doors"
$surfaceprop "wood"

$sequence "idle" "door_double" fps 30 activity ACT_IDLE 1
$sequence "locked" "door_double" fps 30 activity ACT_DOOR_LOCKED 1
$sequence "open" "door_double" fps 30 activity ACT_DOOR_OPEN 1

$collisionmodel "door_double_phys.dmx" {
    $mass 50
    $concave
}

$keyvalues
{
    "prop_data"
    {
        "blocklos"    "1"
        "allowstatic" "1"
    }
    "door_options"
    {
        "default"
        {
            "open"  "Doors.FullOpen1"
            "close" "Doors.FullClose1"
            "move"  "Doors.Move1"
        }
        "skin0"
        {
            "open"        "Doors.FullOpen1"
            "close"       "Doors.FullClose1"
            "move"        "Doors.Move1"
            "surfaceprop" "wood"
        }
        "hardware0"
        {
            "locked"   "DoorHandles.Locked1"
            "unlocked" "DoorHandles.Unlocked1"
        }
    }
}
