versioninfo
{
	"editorversion" "400"
	"editorbuild" "9520"
	"mapversion" "2"
	"formatversion" "100"
	"prefab" "0"
}
visgroups
{
}
viewsettings
{
	"bSnapToGrid" "1"
	"bShowGrid" "1"
	"bShowLogicalGrid" "0"
	"nGridSpacing" "64"
	"bShow3DGrid" "0"
}
world
{
	"id" "1"
	"mapversion" "2"
	"classname" "worldspawn"
	"detailmaterial" "detail/detailsprites"
	"detailvbsp" "detail.vbsp"
	"maxpropscreenwidth" "-1"
	"skyname" "sky_day01_01"
	solid
	{
		"id" "6"
		side
		{
			"id" "24"
			"plane" "(39 8 95) (64 8 120) (64 -8 120)"
			"material" "TOOLS/TOOLSNODRAW"
			"uaxis" "[0 -1 0 0] 0.25"
			"vaxis" "[-0.707107 0 -0.707107 0] 0.25"
			"rotation" "0"
			"lightmapscale" "16"
			"smoothing_groups" "0"
		}
		side
		{
			"id" "23"
			"plane" "(39 -8 0) (64 -8 0) (64 8 0)"
			"material" "TOOLS/TOOLSNODRAW"
			"uaxis" "[-1 0 0 0] 0.25"
			"vaxis" "[0 -1 0 0] 0.25"
			"rotation" "0"
			"lightmapscale" "16"
			"smoothing_groups" "0"
		}
		side
		{
			"id" "22"
			"plane" "(64 8 0) (64 -8 0) (64 -8 120)"
			"material" "TOOLS/TOOLSNODRAW"
			"uaxis" "[0 1 0 0] 0.25"
			"vaxis" "[0 0 -1 0] 0.25"
			"rotation" "0"
			"lightmapscale" "16"
			"smoothing_groups" "0"
		}
		side
		{
			"id" "21"
			"plane" "(64 8 120) (39 8 95) (39 8 0)"
			"material" "DEV/GRAYGRID"
			"uaxis" "[-1 0 0 256] 0.25"
			"vaxis" "[0 0 -1 0] 0.25"
			"rotation" "0"
			"lightmapscale" "16"
			"smoothing_groups" "0"
		}
		side
		{
			"id" "20"
			"plane" "(64 -8 0) (39 -8 0) (39 -8 95)"
			"material" "DEV/GRAYGRID"
			"uaxis" "[1 0 0 256] 0.25"
			"vaxis" "[0 0 -1 0] 0.25"
			"rotation" "0"
			"lightmapscale" "16"
			"smoothing_groups" "0"
		}
		side
		{
			"id" "19"
			"plane" "(39 -8 0) (39 8 0) (39 8 95)"
			"material" "DEV/GRAYGRID"
			"uaxis" "[0 -1 0 32] 0.25"
			"vaxis" "[0 0 -1 0] 0.25"
			"rotation" "0"
			"lightmapscale" "16"
			"smoothing_groups" "0"
		}
		editor
		{
			"color" "158 123 0"
			"groupid" "5"
			"visgroupshown" "1"
			"visgroupautoshown" "1"
		}
	}
	solid
	{
		"id" "7"
		side
		{
			"id" "30"
			"plane" "(64 -8 120) (-64 -8 120) (-64 8 120)"
			"material" "TOOLS/TOOLSNODRAW"
			"uaxis" "[1 0 0 0] 0.25"
			"vaxis" "[0 -1 0 0] 0.25"
			"rotation" "0"
			"lightmapscale" "16"
			"smoothing_groups" "0"
		}
		side
		{
			"id" "29"
			"plane" "(64 8 120) (-64 8 120) (-39 8 95)"
			"material" "DEV/GRAYGRID"
			"uaxis" "[-1 0 0 256] 0.25"
			"vaxis" "[0 0 -1 0] 0.25"
			"rotation" "0"
			"lightmapscale" "16"
			"smoothing_groups" "0"
		}
		side
		{
			"id" "28"
			"plane" "(-39 -8 95) (-64 -8 120) (64 -8 120)"
			"material" "DEV/GRAYGRID"
			"uaxis" "[1 0 0 256] 0.25"
			"vaxis" "[0 0 -1 0] 0.25"
			"rotation" "0"
			"lightmapscale" "16"
			"smoothing_groups" "0"
		}
		side
		{
			"id" "27"
			"plane" "(-39 8 95) (-64 8 120) (-64 -8 120)"
			"material" "TOOLS/TOOLSNODRAW"
			"uaxis" "[0 -1 0 0] 0.25"
			"vaxis" "[0.707107 0 -0.707107 0] 0.25"
			"rotation" "0"
			"lightmapscale" "16"
			"smoothing_groups" "0"
		}
		side
		{
			"id" "26"
			"plane" "(39 -8 95) (64 -8 120) (64 8 120)"
			"material" "TOOLS/TOOLSNODRAW"
			"uaxis" "[0 1 0 0] 0.25"
			"vaxis" "[-0.707107 0 -0.707107 0] 0.25"
			"rotation" "0"
			"lightmapscale" "16"
			"smoothing_groups" "0"
		}
		side
		{
			"id" "25"
			"plane" "(39 8 95) (-39 8 95) (-39 -8 95)"
			"material" "DEV/DEV_MEASUREGENERIC01B"
			"uaxis" "[-1 0 0 0] 0.25"
			"vaxis" "[0 -1 0 -32] 0.25"
			"rotation" "0"
			"lightmapscale" "16"
			"smoothing_groups" "0"
		}
		editor
		{
			"color" "158 123 0"
			"groupid" "5"
			"visgroupshown" "1"
			"visgroupautoshown" "1"
		}
	}
	solid
	{
		"id" "8"
		side
		{
			"id" "36"
			"plane" "(-39 -8 95) (-64 -8 120) (-64 8 120)"
			"material" "TOOLS/TOOLSNODRAW"
			"uaxis" "[0 1 0 0] 0.25"
			"vaxis" "[0.707107 0 -0.707107 0] 0.25"
			"rotation" "0"
			"lightmapscale" "16"
			"smoothing_groups" "0"
		}
		side
		{
			"id" "35"
			"plane" "(-64 8 0) (-64 -8 0) (-39 -8 0)"
			"material" "TOOLS/TOOLSNODRAW"
			"uaxis" "[-1 0 0 0] 0.25"
			"vaxis" "[0 -1 0 0] 0.25"
			"rotation" "0"
			"lightmapscale" "16"
			"smoothing_groups" "0"
		}
		side
		{
			"id" "34"
			"plane" "(-64 -8 0) (-64 8 0) (-64 8 120)"
			"material" "TOOLS/TOOLSNODRAW"
			"uaxis" "[0 -1 0 0] 0.25"
			"vaxis" "[0 0 -1 0] 0.25"
			"rotation" "0"
			"lightmapscale" "16"
			"smoothing_groups" "0"
		}
		side
		{
			"id" "33"
			"plane" "(-64 8 0) (-39 8 0) (-39 8 95)"
			"material" "DEV/GRAYGRID"
			"uaxis" "[-1 0 0 256] 0.25"
			"vaxis" "[0 0 -1 0] 0.25"
			"rotation" "0"
			"lightmapscale" "16"
			"smoothing_groups" "0"
		}
		side
		{
			"id" "32"
			"plane" "(-64 -8 120) (-39 -8 95) (-39 -8 0)"
			"material" "DEV/GRAYGRID"
			"uaxis" "[1 0 0 256] 0.25"
			"vaxis" "[0 0 -1 0] 0.25"
			"rotation" "0"
			"lightmapscale" "16"
			"smoothing_groups" "0"
		}
		side
		{
			"id" "31"
			"plane" "(-39 8 0) (-39 -8 0) (-39 -8 95)"
			"material" "DEV/GRAYGRID"
			"uaxis" "[0 1 0 32] 0.25"
			"vaxis" "[0 0 -1 0] 0.25"
			"rotation" "0"
			"lightmapscale" "16"
			"smoothing_groups" "0"
		}
		editor
		{
			"color" "158 123 0"
			"groupid" "5"
			"visgroupshown" "1"
			"visgroupautoshown" "1"
		}
	}
	group
	{
		"id" "5"
		editor
		{
			"color" "158 123 0"
			"visgroupshown" "1"
			"visgroupautoshown" "1"
		}
	}
}
entity
{
	"id" "2"
	"classname" "func_instance"
	"angles" "0 0 0"
	"file" "instances/common_double_doors.vmf"
	"fixup_style" "0"
	"origin" "0 0 0"
	editor
	{
		"color" "220 30 220"
		"visgroupshown" "1"
		"visgroupautoshown" "1"
		"logicalpos" "[0 -9268]"
	}
}
cameras
{
	"activecamera" "-1"
}
cordon
{
	"mins" "(-1024 -1024 -1024)"
	"maxs" "(1024 1024 1024)"
	"active" "0"
}
